[
  {
    "type" : "paragraph",
    "content" : {
      "paragraph" : "test"
    }
  },
  {
    "type" : "image",
    "content" : {
      "image" : {
        "src" : "",
        "alt" : ""
      }
    }
  }
]
